%YAML 1.1
%TAG !u! tag:unity3d.com,2011:
--- !u!114 &11400000
MonoBehaviour:
  m_ObjectHideFlags: 0
  m_PrefabParentObject: {fileID: 0}
  m_PrefabInternal: {fileID: 0}
  m_GameObject: {fileID: 0}
  m_Enabled: 1
  m_EditorHideFlags: 0
  m_Script: {fileID: -1223223985, guid: aa81bbec85a3f423193272a7c6154986, type: 3}
  m_Name: BeatHit
  m_EditorClassIdentifier: 
  mEventID: BeatHit
  mEventList:
  - mStartSample: 441000
    mEndSample: 441000
  - mStartSample: 463050
    mEndSample: 463050
  - mStartSample: 485100
    mEndSample: 485100
  - mStartSample: 507150
    mEndSample: 507150
  - mStartSample: 529200
    mEndSample: 529200
  - mStartSample: 551250
    mEndSample: 551250
  - mStartSample: 573300
    mEndSample: 573300
  - mStartSample: 595350
    mEndSample: 595350
  - mStartSample: 617400
    mEndSample: 617400
  - mStartSample: 639450
    mEndSample: 639450
  - mStartSample: 661500
    mEndSample: 661500
  - mStartSample: 683550
    mEndSample: 683550
  - mStartSample: 705600
    mEndSample: 705600
  - mStartSample: 727650
    mEndSample: 727650
  - mStartSample: 749700
    mEndSample: 749700
  - mStartSample: 771750
    mEndSample: 771750
  - mStartSample: 793800
    mEndSample: 793800
  - mStartSample: 815850
    mEndSample: 815850
  - mStartSample: 837900
    mEndSample: 837900
  - mStartSample: 859950
    mEndSample: 859950
  - mStartSample: 882000
    mEndSample: 882000
  - mStartSample: 904050
    mEndSample: 904050
  - mStartSample: 926100
    mEndSample: 926100
  - mStartSample: 948150
    mEndSample: 948150
  - mStartSample: 970200
    mEndSample: 970200
  - mStartSample: 992250
    mEndSample: 992250
  - mStartSample: 1014300
    mEndSample: 1014300
  - mStartSample: 1036350
    mEndSample: 1036350
  - mStartSample: 1058400
    mEndSample: 1058400
  - mStartSample: 1080450
    mEndSample: 1080450
  - mStartSample: 1102500
    mEndSample: 1102500
  - mStartSample: 1124550
    mEndSample: 1124550
  - mStartSample: 1146600
    mEndSample: 1146600
  - mStartSample: 1168650
    mEndSample: 1168650
  - mStartSample: 1190700
    mEndSample: 1190700
  - mStartSample: 1212750
    mEndSample: 1212750
  - mStartSample: 1234800
    mEndSample: 1234800
  - mStartSample: 1256850
    mEndSample: 1256850
  - mStartSample: 1278900
    mEndSample: 1278900
  - mStartSample: 1300950
    mEndSample: 1300950
  - mStartSample: 1323000
    mEndSample: 1323000
  - mStartSample: 1345050
    mEndSample: 1345050
  - mStartSample: 1367100
    mEndSample: 1367100
  - mStartSample: 1389150
    mEndSample: 1389150
  - mStartSample: 1411200
    mEndSample: 1411200
  - mStartSample: 1433250
    mEndSample: 1433250
  - mStartSample: 1455300
    mEndSample: 1455300
  - mStartSample: 1477350
    mEndSample: 1477350
  - mStartSample: 1499400
    mEndSample: 1499400
  - mStartSample: 1521450
    mEndSample: 1521450
  - mStartSample: 1543500
    mEndSample: 1543500
  - mStartSample: 1565550
    mEndSample: 1565550
  - mStartSample: 1587600
    mEndSample: 1587600
  - mStartSample: 1609650
    mEndSample: 1609650
  - mStartSample: 1631700
    mEndSample: 1631700
  - mStartSample: 1653750
    mEndSample: 1653750
  - mStartSample: 1675800
    mEndSample: 1675800
  - mStartSample: 1697850
    mEndSample: 1697850
  - mStartSample: 1719900
    mEndSample: 1719900
  - mStartSample: 1741950
    mEndSample: 1741950
  - mStartSample: 1764000
    mEndSample: 1764000
  - mStartSample: 1786050
    mEndSample: 1786050
  - mStartSample: 1808100
    mEndSample: 1808100
  - mStartSample: 1830150
    mEndSample: 1830150
  - mStartSample: 1852200
    mEndSample: 1852200
  - mStartSample: 1874250
    mEndSample: 1874250
  - mStartSample: 1896300
    mEndSample: 1896300
  - mStartSample: 1918350
    mEndSample: 1918350
  - mStartSample: 1940400
    mEndSample: 1940400
  - mStartSample: 1962450
    mEndSample: 1962450
  - mStartSample: 1984500
    mEndSample: 1984500
  - mStartSample: 2006550
    mEndSample: 2006550
  - mStartSample: 2028600
    mEndSample: 2028600
  - mStartSample: 2050650
    mEndSample: 2050650
  - mStartSample: 2072700
    mEndSample: 2072700
  - mStartSample: 2094750
    mEndSample: 2094750
  - mStartSample: 2116800
    mEndSample: 2116800
  - mStartSample: 2138850
    mEndSample: 2138850
  - mStartSample: 2160900
    mEndSample: 2160900
  - mStartSample: 2182950
    mEndSample: 2182950
  - mStartSample: 2205000
    mEndSample: 2205000
  - mStartSample: 2227050
    mEndSample: 2227050
  - mStartSample: 2249100
    mEndSample: 2249100
  - mStartSample: 2271150
    mEndSample: 2271150
  - mStartSample: 2293200
    mEndSample: 2293200
  - mStartSample: 2315250
    mEndSample: 2315250
  - mStartSample: 2337300
    mEndSample: 2337300
  - mStartSample: 2359350
    mEndSample: 2359350
  - mStartSample: 2381400
    mEndSample: 2381400
  - mStartSample: 2403450
    mEndSample: 2403450
  - mStartSample: 2425500
    mEndSample: 2425500
  - mStartSample: 2447550
    mEndSample: 2447550
  - mStartSample: 2469600
    mEndSample: 2469600
  - mStartSample: 2491650
    mEndSample: 2491650
  - mStartSample: 2513700
    mEndSample: 2513700
  - mStartSample: 2535750
    mEndSample: 2535750
  - mStartSample: 2557800
    mEndSample: 2557800
  - mStartSample: 2579850
    mEndSample: 2579850
  - mStartSample: 2601900
    mEndSample: 2601900
  - mStartSample: 2623950
    mEndSample: 2623950
  - mStartSample: 2646000
    mEndSample: 2646000
  - mStartSample: 2668050
    mEndSample: 2668050
  - mStartSample: 2690100
    mEndSample: 2690100
  - mStartSample: 2712150
    mEndSample: 2712150
  - mStartSample: 2734200
    mEndSample: 2734200
  - mStartSample: 2756250
    mEndSample: 2756250
  - mStartSample: 2778300
    mEndSample: 2778300
  - mStartSample: 2800350
    mEndSample: 2800350
  - mStartSample: 2822400
    mEndSample: 2822400
  - mStartSample: 2844450
    mEndSample: 2844450
  - mStartSample: 2866500
    mEndSample: 2866500
  - mStartSample: 2888550
    mEndSample: 2888550
  - mStartSample: 2910600
    mEndSample: 2910600
  _SerializedPayloadTypes: []
  _AssetPayloads: []
  _AssetPayloadIdxs: 
  _ColorPayloads: []
  _ColorPayloadIdxs: 
  _CurvePayloads: []
  _CurvePayloadIdxs: 
  _FloatPayloads: []
  _FloatPayloadIdxs: 
  _GradientPayloads: []
  _GradientPayloadIdxs: 
  _IntPayloads: []
  _IntPayloadIdxs: 
  _SpectrumPayloads: []
  _SpectrumPayloadIdxs: 
  _TextPayloads: []
  _TextPayloadIdxs: 
